<svg xmlns="http://www.w3.org/2000/svg" xmlns:xlink="http://www.w3.org/1999/xlink" width="61.532" height="17.821" viewBox="0 0 61.532 17.821">
  <defs>
    <clipPath id="clip-path">
      <rect id="Rectangle_298" data-name="Rectangle 298" width="6.09" height="0.88" transform="translate(1179.721 2284.573)" fill="none"/>
    </clipPath>
    <clipPath id="clip-path-2">
      <rect id="Rectangle_299" data-name="Rectangle 299" width="5.28" height="0.91" transform="translate(1181.511 2289.253)" fill="none"/>
    </clipPath>
    <clipPath id="clip-path-3">
      <rect id="Rectangle_300" data-name="Rectangle 300" width="5.47" height="0.86" transform="translate(1178.651 2291.643)" fill="none"/>
    </clipPath>
    <clipPath id="clip-path-4">
      <rect id="Rectangle_301" data-name="Rectangle 301" width="4.46" height="0.91" transform="translate(1177.041 2286.933)" fill="none"/>
    </clipPath>
    <clipPath id="clip-path-5">
      <path id="Path_576" data-name="Path 576" d="M1197.607,2283.5h-12.572c-.667,0-.737.063-.827.8h.553c.187,0,.375-.006.562,0a.723.723,0,1,1-.017,1.44c-.4.008-.8.011-1.193,0-.208-.007-.315.042-.355.27-.069.378-.178.75-.268,1.125-.15.607-.3,1.213-.459,1.88.615,0,1.17,0,1.723,0s1.1-.017,1.642,0a.778.778,0,0,1,.687.722.75.75,0,0,1-.664.7,2.183,2.183,0,0,1-.28.006h-3.46c-.074.331-.137.61-.206.917.39,0,.728,0,1.065,0,.535,0,.861.27.863.708s-.321.714-.853.717h-1.431c-.068.288-.129.536-.193.811h3.86l.021-.05c0-.027,0-.056,0-.083a2.194,2.194,0,0,1,4.355,0c0,.047,0,.093-.007.14h6.311c.026-.071.055-.134.072-.2.328-1.315.66-2.629.979-3.946.333-1.374.654-2.749.98-4.124.076-.32.167-.635.222-.956a.674.674,0,0,0-.721-.878c-.056,0-.111,0-.166,0h-.22" fill="none"/>
    </clipPath>
    <clipPath id="clip-path-6">
      <rect id="Rectangle_302" data-name="Rectangle 302" width="18.61" height="18.6" transform="translate(1190.751 2272.273)" fill="none"/>
    </clipPath>
    <clipPath id="clip-path-7">
      <rect id="Rectangle_303" data-name="Rectangle 303" width="30.04" height="7.08" transform="translate(1206.511 2283.623)" fill="none"/>
    </clipPath>
  </defs>
  <g id="Express" transform="translate(-1177.041 -2280.398)">
    <g id="Group_598" data-name="Group 598">
      <rect id="Rectangle_297" data-name="Rectangle 297" width="59.511" height="17.321" rx="3.924" transform="translate(1178.813 2280.648)" fill="none" stroke="#5c5c5a" stroke-miterlimit="10" stroke-width="0.5"/>
      <g id="Group_588" data-name="Group 588" style="mix-blend-mode: multiply;isolation: isolate">
        <g id="Group_587" data-name="Group 587">
          <g id="Group_586" data-name="Group 586" clip-path="url(#clip-path)">
            <path id="Path_569" data-name="Path 569" d="M1182.767,2285.451q-1.245,0-2.491,0c-.349,0-.561-.169-.56-.435s.213-.438.565-.439q2.49,0,4.981,0c.368,0,.554.158.553.441s-.19.431-.557.433c-.83,0-1.661,0-2.491,0" fill="#e0231f"/>
          </g>
        </g>
      </g>
      <g id="Group_591" data-name="Group 591" style="mix-blend-mode: multiply;isolation: isolate">
        <g id="Group_590" data-name="Group 590">
          <g id="Group_589" data-name="Group 589" clip-path="url(#clip-path-2)">
            <path id="Path_570" data-name="Path 570" d="M1184.132,2290.16H1182.1c-.287,0-.555-.039-.584-.4-.023-.286.177-.489.55-.5.6-.019,1.209,0,1.814,0s1.205-.006,1.808,0c.22,0,.441.007.661.024a.413.413,0,0,1,.436.445c0,.307-.2.432-.482.434-.724,0-1.448,0-2.172,0" fill="#e0231f"/>
          </g>
        </g>
      </g>
      <g id="Group_594" data-name="Group 594" style="mix-blend-mode: multiply;isolation: isolate">
        <g id="Group_593" data-name="Group 593">
          <g id="Group_592" data-name="Group 592" clip-path="url(#clip-path-3)">
            <path id="Path_571" data-name="Path 571" d="M1181.385,2292.5c-.737,0-1.473,0-2.21,0-.344,0-.526-.157-.525-.424s.179-.423.524-.424q2.211-.007,4.42,0c.347,0,.523.15.523.423s-.175.425-.522.428c-.737.007-1.473,0-2.21,0Z" fill="#e0231f"/>
          </g>
        </g>
      </g>
      <g id="Group_597" data-name="Group 597" style="mix-blend-mode: multiply;isolation: isolate">
        <g id="Group_596" data-name="Group 596">
          <g id="Group_595" data-name="Group 595" clip-path="url(#clip-path-4)">
            <path id="Path_572" data-name="Path 572" d="M1180.254,2287.84c-.887,0-1.773-.033-2.658-.038-.374,0-.556-.154-.557-.434s.178-.43.556-.431c1.121,0,2.242,0,3.363,0,.3,0,.5.1.536.424a.342.342,0,0,1-.334.434c-.3.03-.6.034-.906.049h0" fill="#e0231f"/>
          </g>
        </g>
      </g>
      <path id="Path_573" data-name="Path 573" d="M1203.573,2292.424c-.391-.13-.406-.2-.228-1.035l.473.036c-.087.353-.166.675-.245,1" fill="#5a5b59"/>
      <path id="Path_574" data-name="Path 574" d="M1197.993,2283.5c-.129-.005-.257,0-.386,0h-12.572c-.666,0-.736.063-.827.8h.553c.188,0,.375-.006.562,0a.723.723,0,1,1-.016,1.44c-.4.008-.8.011-1.194,0-.208-.006-.315.042-.356.27-.068.378-.176.75-.268,1.125-.148.607-.3,1.215-.457,1.881h1.723c.547,0,1.095-.017,1.642,0a.776.776,0,0,1,.686.721.748.748,0,0,1-.663.7,2.035,2.035,0,0,1-.281.007h-3.459c-.075.33-.138.607-.207.916.39,0,.728,0,1.066,0,.535,0,.86.271.863.709s-.321.713-.853.716c-.477,0-.953,0-1.431,0-.069.289-.129.535-.194.811h3.86c.007-.017.015-.033.021-.05s0-.055,0-.083a2.193,2.193,0,0,1,4.354,0c0,.046,0,.094-.007.14h6.312a1.863,1.863,0,0,0,.071-.2c.328-1.314.66-2.628.98-3.945.333-1.373.654-2.75.98-4.125.075-.318.167-.634.222-.956a.674.674,0,0,0-.722-.877" fill="#5a5b59"/>
    </g>
    <g id="Group_603" data-name="Group 603">
      <g id="Group_602" data-name="Group 602" clip-path="url(#clip-path-5)">
        <g id="Group_601" data-name="Group 601" opacity="0.74">
          <g id="Group_600" data-name="Group 600">
            <g id="Group_599" data-name="Group 599" clip-path="url(#clip-path-6)">
              <path id="Path_575" data-name="Path 575" d="M1192.261,2281.027a5.123,5.123,0,0,0,.638.543,5.178,5.178,0,0,0-.638.542,5.105,5.105,0,0,0-1.506,3.625v5.133h5.133a5.142,5.142,0,0,0,4.165-2.148,5.236,5.236,0,0,0,.545.643,5.107,5.107,0,0,0,3.626,1.505l5.133,0v-5.133a5.116,5.116,0,0,0-1.505-3.627,5.363,5.363,0,0,0-.64-.542,5.23,5.23,0,0,0,.64-.543,5.107,5.107,0,0,0,1.505-3.624v-5.135l-5.132,0a5.106,5.106,0,0,0-3.627,1.5,5.254,5.254,0,0,0-.546.642h0a5.134,5.134,0,0,0-4.163-2.147h-5.134v5.132a5.1,5.1,0,0,0,1.506,3.625m7.252,1.085a.55.55,0,1,1,0-1.085.55.55,0,1,1,1.085,0,5.283,5.283,0,0,0,.609.522c.01.007.021.013.031.021l-.032.021a5.349,5.349,0,0,0-.608.521.55.55,0,1,1-1.085,0m7.919-4.711a3.223,3.223,0,0,1-3.132,3.205h-.073a3.205,3.205,0,1,1,0-6.411h3.2Zm-6.413,8.336a3.219,3.219,0,0,1,3.208-3.2h.057a3.223,3.223,0,0,1,3.148,3.208v3.205h-3.206a3.219,3.219,0,0,1-3.207-3.208m-8.76,0a3.658,3.658,0,0,1,3.567-3.628h.059a3.626,3.626,0,1,1,0,7.252h-3.627Zm.421-11.545h3.207a3.205,3.205,0,1,1,0,6.411h-.076a3.223,3.223,0,0,1-3.13-3.207Z" fill="#fff"/>
            </g>
          </g>
        </g>
      </g>
    </g>
    <g id="Group_607" data-name="Group 607">
      <path id="Path_577" data-name="Path 577" d="M1203.905,2291.19a4.682,4.682,0,0,0-.165-.835c-.415-1.091-.865-2.168-1.29-3.255a.586.586,0,0,0-.6-.43c-1.017,0-2.034.013-3.05-.01-.3-.007-.4.092-.463.367-.394,1.682-.808,3.359-1.214,5.038-.122.5-.242,1.009-.368,1.535h1.662a1.581,1.581,0,0,1-.019-.239,2.184,2.184,0,0,1,4.31,0c0,.037,0,.074-.005.11s0,.074,0,.112c.6.076.722-.079.8-1.007-.624-.172-.351-.67-.33-1.047.025-.453.473-.12.732-.339m-4.792-.135-.018-.145.727-.038c0,.042.007.084.011.126-.22.175-.475.073-.72.057m3.219-.606c-.467,0-.935,0-1.4,0v0c-.467,0-.935-.006-1.4,0-.241,0-.306-.081-.245-.319.19-.744.367-1.492.543-2.24.063-.272.184-.43.5-.405a7.405,7.405,0,0,0,.8-.026.66.66,0,0,1,.689.474c.268.7.548,1.388.821,2.082.136.348.078.43-.306.433" fill="#5a5b59"/>
      <path id="Path_578" data-name="Path 578" d="M1187.927,2291.872a1.834,1.834,0,1,0,1.89,1.833,1.862,1.862,0,0,0-1.89-1.833m0,2.826a.993.993,0,1,1,1.023-.993,1.009,1.009,0,0,1-1.023.993"/>
      <path id="Path_579" data-name="Path 579" d="M1188.4,2293.705a.474.474,0,1,1-.474-.46.467.467,0,0,1,.474.46"/>
      <path id="Path_580" data-name="Path 580" d="M1200.53,2291.872a1.834,1.834,0,1,0,1.89,1.833,1.861,1.861,0,0,0-1.89-1.833m0,2.826a.993.993,0,1,1,1.023-.993,1.009,1.009,0,0,1-1.023.993"/>
      <path id="Path_581" data-name="Path 581" d="M1201,2293.705a.474.474,0,1,1-.474-.46.467.467,0,0,1,.474.46"/>
      <g id="Group_606" data-name="Group 606" style="mix-blend-mode: multiply;isolation: isolate">
        <g id="Group_605" data-name="Group 605">
          <g id="Group_604" data-name="Group 604" clip-path="url(#clip-path-7)">
            <path id="Path_582" data-name="Path 582" d="M1210.633,2289.126h-4.127l.873-5.5h4.04l-.157,1.014h-2.908l-.173,1.061h2.342l-.157,1h-2.343l-.228,1.415h2.995Z" fill="#e0231f"/>
            <path id="Path_583" data-name="Path 583" d="M1214.728,2285.2h1.289l-1.737,1.871,1.258,2.051h-1.187l-.763-1.242-1.163,1.242h-1.289l1.9-2.044-1.148-1.878h1.187l.668,1.093Z" fill="#e0231f"/>
            <path id="Path_584" data-name="Path 584" d="M1217.385,2288.608l-.33,2.091h-1.109l.873-5.495h1.108l-.079.456a1.741,1.741,0,0,1,1.3-.558,1.479,1.479,0,0,1,1.187.527,1.942,1.942,0,0,1,.448,1.305,2.435,2.435,0,0,1-.574,1.6,1.842,1.842,0,0,1-1.5.692,1.734,1.734,0,0,1-.79-.181,1.418,1.418,0,0,1-.538-.44m1.328-2.539a1.141,1.141,0,0,0-.574.157,1.248,1.248,0,0,0-.44.417l-.165,1.045a1.077,1.077,0,0,0,.4.405,1.111,1.111,0,0,0,.589.169,1.065,1.065,0,0,0,.8-.346,1.232,1.232,0,0,0,.33-.872.972.972,0,0,0-.259-.708.91.91,0,0,0-.684-.267" fill="#e0231f"/>
            <path id="Path_585" data-name="Path 585" d="M1222.4,2289.127h-1.108l.621-3.922h1.108l-.1.652a1.736,1.736,0,0,1,.629-.527,1.77,1.77,0,0,1,.856-.228.641.641,0,0,1,.126.008l-.173,1.093a1.223,1.223,0,0,0-.369-.047,1.449,1.449,0,0,0-.727.184,1.259,1.259,0,0,0-.491.476Z" fill="#e0231f"/>
            <path id="Path_586" data-name="Path 586" d="M1226.951,2288.286a2.635,2.635,0,0,0,1.249-.322l-.133.911a2.387,2.387,0,0,1-1.392.354,2.105,2.105,0,0,1-1.454-.519,1.756,1.756,0,0,1-.574-1.367,2.2,2.2,0,0,1,.622-1.588,2.093,2.093,0,0,1,1.571-.653,1.743,1.743,0,0,1,1.29.48,1.637,1.637,0,0,1,.487,1.2,3.666,3.666,0,0,1-.071.684h-2.829a.728.728,0,0,0,.361.6,1.612,1.612,0,0,0,.873.213m-1.156-1.525h1.753v-.055a.718.718,0,0,0-.2-.531.749.749,0,0,0-.554-.2,1.021,1.021,0,0,0-.636.208.977.977,0,0,0-.362.578" fill="#e0231f"/>
            <path id="Path_587" data-name="Path 587" d="M1232.6,2285.55l-.149.92a2.33,2.33,0,0,0-1.407-.472c-.42,0-.629.1-.629.314a.241.241,0,0,0,.149.22,4.971,4.971,0,0,0,.7.244,2.164,2.164,0,0,1,.884.444.907.907,0,0,1,.287.688,1.105,1.105,0,0,1-.535.983,2.264,2.264,0,0,1-1.249.337,3.874,3.874,0,0,1-.987-.129,2.584,2.584,0,0,1-.79-.334l.142-.936a2.644,2.644,0,0,0,1.619.5q.668,0,.668-.338c0-.111-.086-.2-.259-.26a5.259,5.259,0,0,0-.519-.188,2.828,2.828,0,0,1-.963-.452.806.806,0,0,1-.311-.649,1.116,1.116,0,0,1,.5-.99,2.172,2.172,0,0,1,1.249-.346,2.66,2.66,0,0,1,1.6.448" fill="#e0231f"/>
            <path id="Path_588" data-name="Path 588" d="M1236.556,2285.55l-.149.92A2.33,2.33,0,0,0,1235,2286c-.42,0-.629.1-.629.314a.241.241,0,0,0,.149.22,4.971,4.971,0,0,0,.7.244,2.163,2.163,0,0,1,.884.444.907.907,0,0,1,.287.688,1.106,1.106,0,0,1-.534.983,2.27,2.27,0,0,1-1.25.337,3.88,3.88,0,0,1-.987-.129,2.586,2.586,0,0,1-.79-.334l.142-.936a2.644,2.644,0,0,0,1.619.5q.668,0,.668-.338c0-.111-.086-.2-.259-.26a5.247,5.247,0,0,0-.519-.188,2.828,2.828,0,0,1-.963-.452.805.805,0,0,1-.31-.649,1.115,1.115,0,0,1,.5-.99,2.172,2.172,0,0,1,1.249-.346,2.66,2.66,0,0,1,1.6.448" fill="#e0231f"/>
          </g>
        </g>
      </g>
      <path id="Path_589" data-name="Path 589" d="M1210.609,2290.469h1.188a2.042,2.042,0,0,1,1.434.5,1.665,1.665,0,0,1,.542,1.3,1.99,1.99,0,0,1-.714,1.616,2.8,2.8,0,0,1-1.85.589h-1.233Zm-.148,3.615h.954a1.962,1.962,0,0,0,1.387-.5,1.711,1.711,0,0,0,.537-1.319,1.323,1.323,0,0,0-.422-1.022,1.633,1.633,0,0,0-1.16-.394h-.788Z"/>
      <path id="Path_590" data-name="Path 590" d="M1215.869,2294.164a1.673,1.673,0,0,0,.862-.246l-.051.389a1.565,1.565,0,0,1-.891.228,1.48,1.48,0,0,1-1.017-.359,1.235,1.235,0,0,1-.4-.954,1.605,1.605,0,0,1,.428-1.114,1.406,1.406,0,0,1,1.085-.468,1.131,1.131,0,0,1,.891.36,1.2,1.2,0,0,1,.314.834,2.3,2.3,0,0,1-.029.354h-2.278a.9.9,0,0,0,.3.719,1.163,1.163,0,0,0,.788.257m-.006-2.153a1.069,1.069,0,0,0-.68.234,1.042,1.042,0,0,0-.365.606h1.867a.465.465,0,0,0,.006-.086.738.738,0,0,0-.217-.525.789.789,0,0,0-.611-.229"/>
      <path id="Path_591" data-name="Path 591" d="M1218.256,2290.469h.411l-.508,3.215a2.268,2.268,0,0,0-.029.24c0,.16.094.24.28.24a.56.56,0,0,0,.314-.074l-.063.365a.969.969,0,0,1-.411.08q-.537,0-.537-.5a2.213,2.213,0,0,1,.035-.342Z"/>
      <path id="Path_592" data-name="Path 592" d="M1219.764,2294.467h-.412l.44-2.759h.411Zm.365-4a.279.279,0,0,1,.2.083.3.3,0,0,1,0,.417.279.279,0,0,1-.2.083.292.292,0,1,1,0-.583"/>
      <path id="Path_593" data-name="Path 593" d="M1221.991,2293.935l1.365-2.227h.451l-1.708,2.775h-.377l-.827-2.775h.434Z"/>
      <path id="Path_594" data-name="Path 594" d="M1225.555,2294.164a1.673,1.673,0,0,0,.862-.246l-.051.389a1.564,1.564,0,0,1-.891.228,1.478,1.478,0,0,1-1.017-.359,1.235,1.235,0,0,1-.4-.954,1.606,1.606,0,0,1,.429-1.114,1.406,1.406,0,0,1,1.085-.468,1.131,1.131,0,0,1,.891.36,1.2,1.2,0,0,1,.314.834,2.313,2.313,0,0,1-.029.354h-2.278a.9.9,0,0,0,.3.719,1.163,1.163,0,0,0,.788.257m-.006-2.153a1.069,1.069,0,0,0-.68.234,1.042,1.042,0,0,0-.365.606h1.867a.455.455,0,0,0,.006-.086.738.738,0,0,0-.217-.525.79.79,0,0,0-.611-.229"/>
      <path id="Path_595" data-name="Path 595" d="M1227.742,2294.467h-.411l.439-2.758h.412l-.086.525a1.435,1.435,0,0,1,.528-.431,1.481,1.481,0,0,1,.666-.163l-.069.417a1.358,1.358,0,0,0-.671.18,1.5,1.5,0,0,0-.528.488Z"/>
      <path id="Path_596" data-name="Path 596" d="M1231.888,2291.708h.456l-1.793,3.1a2.009,2.009,0,0,1-.514.622.991.991,0,0,1-.611.2.882.882,0,0,1-.417-.1l.063-.372a.687.687,0,0,0,.354.1.656.656,0,0,0,.471-.2,3.3,3.3,0,0,0,.494-.7l-.874-2.65h.429l.7,2.187Z"/>
    </g>
  </g>
</svg>
